GFORTRAN module version '10' created from p80.f90
MD5:373fa1f310b12429d1b79c141ecc358a -- If you edit this, you'll get what you deserve.

(() () () () () () () () () () () () () () () () () () () () () () ()
() () () ())

()

()

()

()

()

(2 'mp80' 'mp80' '' 1 ((MODULE UNKNOWN-INTENT UNKNOWN-PROC UNKNOWN
UNKNOWN 0 0) (UNKNOWN 0 0 0 0 UNKNOWN ()) 0 0 () () 0 () () () 0 0)
3 'p80' 'mp80' '' 1 ((PROCEDURE UNKNOWN-INTENT MODULE-PROC DECL UNKNOWN
0 0 FUNCTION IMPLICIT_PURE) (REAL 4 0 0 0 REAL ()) 4 0 (5 6) () 3 () ()
() 0 0)
5 'dpth' '' '' 4 ((VARIABLE IN UNKNOWN-PROC UNKNOWN UNKNOWN 0 0 DUMMY) (
REAL 4 0 0 0 REAL ()) 0 0 () () 0 () () () 0 0)
6 'xlat' '' '' 4 ((VARIABLE IN UNKNOWN-PROC UNKNOWN UNKNOWN 0 0 DUMMY) (
REAL 4 0 0 0 REAL ()) 0 0 () () 0 () () () 0 0)
)

('mp80' 0 2 'p80' 0 3)
