GFORTRAN module version '10' created from rho.f90
MD5:54e0d35df45e0fd01dcf89442142b3ec -- If you edit this, you'll get what you deserve.

(() () () () () () () () () () () () () () () () () () () () () () ()
() () () ())

()

()

()

()

()

(2 'mrho' 'mrho' '' 1 ((MODULE UNKNOWN-INTENT UNKNOWN-PROC UNKNOWN
UNKNOWN 0 0) (UNKNOWN 0 0 0 0 UNKNOWN ()) 0 0 () () 0 () () () 0 0)
3 'rho' 'mrho' '' 1 ((PROCEDURE UNKNOWN-INTENT MODULE-PROC DECL UNKNOWN
0 0 FUNCTION) (REAL 4 0 0 0 REAL ()) 4 0 (5 6 7) () 3 () () () 0 0)
5 'salt' '' '' 4 ((VARIABLE UNKNOWN-INTENT UNKNOWN-PROC UNKNOWN UNKNOWN
0 0 DUMMY) (REAL 4 0 0 0 REAL ()) 0 0 () () 0 () () () 0 0)
6 'temp' '' '' 4 ((VARIABLE UNKNOWN-INTENT UNKNOWN-PROC UNKNOWN UNKNOWN
0 0 DUMMY) (REAL 4 0 0 0 REAL ()) 0 0 () () 0 () () () 0 0)
7 'pbar' '' '' 4 ((VARIABLE UNKNOWN-INTENT UNKNOWN-PROC UNKNOWN UNKNOWN
0 0 DUMMY) (REAL 4 0 0 0 REAL ()) 0 0 () () 0 () () () 0 0)
)

('mrho' 0 2 'rho' 0 3)
