GFORTRAN module version '10' created from varsolver.f90
MD5:2ca991cc94dd6476e78b817077bc81a5 -- If you edit this, you'll get what you deserve.

(() () () () () () () () () () () () () () () () () () () () () () ()
() () () ())

()

()

()

()

()

(2 'mvarsolver' 'mvarsolver' '' 1 ((MODULE UNKNOWN-INTENT UNKNOWN-PROC
UNKNOWN UNKNOWN 0 0) (UNKNOWN 0 0 0 0 UNKNOWN ()) 0 0 () () 0 () () () 0
0)
3 'varsolver' 'mvarsolver' '' 1 ((PROCEDURE UNKNOWN-INTENT MODULE-PROC
DECL UNKNOWN 0 0 SUBROUTINE ALWAYS_EXPLICIT) (UNKNOWN 0 0 0 0 UNKNOWN ())
4 0 (5 6 7 8 9 10 11 12 13 14 15 16 17 18 19 20 21 22 23 24 25 26 27 28
29 30 31 32 33 34 35 36 37 38) () 0 () () () 0 0)
5 'ph' '' '' 4 ((VARIABLE OUT UNKNOWN-PROC UNKNOWN UNKNOWN 0 0 DUMMY) (
REAL 8 0 0 0 REAL ()) 0 0 () () 0 () () () 0 0)
6 'pco2' '' '' 4 ((VARIABLE OUT UNKNOWN-PROC UNKNOWN UNKNOWN 0 0 DUMMY)
(REAL 8 0 0 0 REAL ()) 0 0 () () 0 () () () 0 0)
7 'fco2' '' '' 4 ((VARIABLE OUT UNKNOWN-PROC UNKNOWN UNKNOWN 0 0 DUMMY)
(REAL 8 0 0 0 REAL ()) 0 0 () () 0 () () () 0 0)
8 'co2' '' '' 4 ((VARIABLE OUT UNKNOWN-PROC UNKNOWN UNKNOWN 0 0 DUMMY) (
REAL 8 0 0 0 REAL ()) 0 0 () () 0 () () () 0 0)
9 'hco3' '' '' 4 ((VARIABLE OUT UNKNOWN-PROC UNKNOWN UNKNOWN 0 0 DUMMY)
(REAL 8 0 0 0 REAL ()) 0 0 () () 0 () () () 0 0)
10 'co3' '' '' 4 ((VARIABLE OUT UNKNOWN-PROC UNKNOWN UNKNOWN 0 0 DUMMY)
(REAL 8 0 0 0 REAL ()) 0 0 () () 0 () () () 0 0)
11 'omegaa' '' '' 4 ((VARIABLE OUT UNKNOWN-PROC UNKNOWN UNKNOWN 0 0
DUMMY) (REAL 8 0 0 0 REAL ()) 0 0 () () 0 () () () 0 0)
12 'omegac' '' '' 4 ((VARIABLE OUT UNKNOWN-PROC UNKNOWN UNKNOWN 0 0
DUMMY) (REAL 8 0 0 0 REAL ()) 0 0 () () 0 () () () 0 0)
13 'temp' '' '' 4 ((VARIABLE IN UNKNOWN-PROC UNKNOWN UNKNOWN 0 0 DUMMY)
(REAL 8 0 0 0 REAL ()) 0 0 () () 0 () () () 0 0)
14 'salt' '' '' 4 ((VARIABLE IN UNKNOWN-PROC UNKNOWN UNKNOWN 0 0 DUMMY)
(REAL 8 0 0 0 REAL ()) 0 0 () () 0 () () () 0 0)
15 'ta' '' '' 4 ((VARIABLE IN UNKNOWN-PROC UNKNOWN UNKNOWN 0 0 DUMMY) (
REAL 8 0 0 0 REAL ()) 0 0 () () 0 () () () 0 0)
16 'tc' '' '' 4 ((VARIABLE IN UNKNOWN-PROC UNKNOWN UNKNOWN 0 0 DUMMY) (
REAL 8 0 0 0 REAL ()) 0 0 () () 0 () () () 0 0)
17 'pt' '' '' 4 ((VARIABLE IN UNKNOWN-PROC UNKNOWN UNKNOWN 0 0 DUMMY) (
REAL 8 0 0 0 REAL ()) 0 0 () () 0 () () () 0 0)
18 'sit' '' '' 4 ((VARIABLE IN UNKNOWN-PROC UNKNOWN UNKNOWN 0 0 DUMMY) (
REAL 8 0 0 0 REAL ()) 0 0 () () 0 () () () 0 0)
19 'bt' '' '' 4 ((VARIABLE IN UNKNOWN-PROC UNKNOWN UNKNOWN 0 0 DUMMY) (
REAL 8 0 0 0 REAL ()) 0 0 () () 0 () () () 0 0)
20 'st' '' '' 4 ((VARIABLE IN UNKNOWN-PROC UNKNOWN UNKNOWN 0 0 DUMMY) (
REAL 8 0 0 0 REAL ()) 0 0 () () 0 () () () 0 0)
21 'ft' '' '' 4 ((VARIABLE IN UNKNOWN-PROC UNKNOWN UNKNOWN 0 0 DUMMY) (
REAL 8 0 0 0 REAL ()) 0 0 () () 0 () () () 0 0)
22 'k0' '' '' 4 ((VARIABLE IN UNKNOWN-PROC UNKNOWN UNKNOWN 0 0 DUMMY) (
REAL 8 0 0 0 REAL ()) 0 0 () () 0 () () () 0 0)
23 'k1' '' '' 4 ((VARIABLE IN UNKNOWN-PROC UNKNOWN UNKNOWN 0 0 DUMMY) (
REAL 8 0 0 0 REAL ()) 0 0 () () 0 () () () 0 0)
24 'k2' '' '' 4 ((VARIABLE IN UNKNOWN-PROC UNKNOWN UNKNOWN 0 0 DUMMY) (
REAL 8 0 0 0 REAL ()) 0 0 () () 0 () () () 0 0)
25 'kb' '' '' 4 ((VARIABLE IN UNKNOWN-PROC UNKNOWN UNKNOWN 0 0 DUMMY) (
REAL 8 0 0 0 REAL ()) 0 0 () () 0 () () () 0 0)
26 'kw' '' '' 4 ((VARIABLE IN UNKNOWN-PROC UNKNOWN UNKNOWN 0 0 DUMMY) (
REAL 8 0 0 0 REAL ()) 0 0 () () 0 () () () 0 0)
27 'ks' '' '' 4 ((VARIABLE IN UNKNOWN-PROC UNKNOWN UNKNOWN 0 0 DUMMY) (
REAL 8 0 0 0 REAL ()) 0 0 () () 0 () () () 0 0)
28 'kf' '' '' 4 ((VARIABLE IN UNKNOWN-PROC UNKNOWN UNKNOWN 0 0 DUMMY) (
REAL 8 0 0 0 REAL ()) 0 0 () () 0 () () () 0 0)
29 'kspc' '' '' 4 ((VARIABLE IN UNKNOWN-PROC UNKNOWN UNKNOWN 0 0 DUMMY)
(REAL 8 0 0 0 REAL ()) 0 0 () () 0 () () () 0 0)
30 'kspa' '' '' 4 ((VARIABLE IN UNKNOWN-PROC UNKNOWN UNKNOWN 0 0 DUMMY)
(REAL 8 0 0 0 REAL ()) 0 0 () () 0 () () () 0 0)
31 'k1p' '' '' 4 ((VARIABLE IN UNKNOWN-PROC UNKNOWN UNKNOWN 0 0 DUMMY) (
REAL 8 0 0 0 REAL ()) 0 0 () () 0 () () () 0 0)
32 'k2p' '' '' 4 ((VARIABLE IN UNKNOWN-PROC UNKNOWN UNKNOWN 0 0 DUMMY) (
REAL 8 0 0 0 REAL ()) 0 0 () () 0 () () () 0 0)
33 'k3p' '' '' 4 ((VARIABLE IN UNKNOWN-PROC UNKNOWN UNKNOWN 0 0 DUMMY) (
REAL 8 0 0 0 REAL ()) 0 0 () () 0 () () () 0 0)
34 'ksi' '' '' 4 ((VARIABLE IN UNKNOWN-PROC UNKNOWN UNKNOWN 0 0 DUMMY) (
REAL 8 0 0 0 REAL ()) 0 0 () () 0 () () () 0 0)
35 'patm' '' '' 4 ((VARIABLE IN UNKNOWN-PROC UNKNOWN UNKNOWN 0 0 DUMMY)
(REAL 8 0 0 0 REAL ()) 0 0 () () 0 () () () 0 0)
36 'phydro_bar' '' '' 4 ((VARIABLE IN UNKNOWN-PROC UNKNOWN UNKNOWN 0 0
DUMMY) (REAL 8 0 0 0 REAL ()) 0 0 () () 0 () () () 0 0)
37 'rhodum' '' '' 4 ((VARIABLE IN UNKNOWN-PROC UNKNOWN UNKNOWN 0 0 DUMMY)
(REAL 8 0 0 0 REAL ()) 0 0 () () 0 () () () 0 0)
38 'optgas' '' '' 4 ((VARIABLE IN UNKNOWN-PROC UNKNOWN UNKNOWN 0 0
OPTIONAL DUMMY) (CHARACTER 1 0 0 0 CHARACTER ((CONSTANT (INTEGER 4 0 0 0
INTEGER ()) 0 '7'))) 0 0 () () 0 () () () 0 0)
)

('mvarsolver' 0 2 'varsolver' 0 3)
