GFORTRAN module version '10' created from vars.f90
MD5:527c482b8d512cabecfc47c1dac44e82 -- If you edit this, you'll get what you deserve.

(() () () () () () () () () () () () () () () () () () () () () () ()
() () () ())

()

()

()

()

()

(2 'mvars' 'mvars' '' 1 ((MODULE UNKNOWN-INTENT UNKNOWN-PROC UNKNOWN
UNKNOWN 0 0) (UNKNOWN 0 0 0 0 UNKNOWN ()) 0 0 () () 0 () () () 0 0)
3 'vars' 'mvars' '' 1 ((PROCEDURE UNKNOWN-INTENT MODULE-PROC DECL
UNKNOWN 0 0 SUBROUTINE ALWAYS_EXPLICIT) (UNKNOWN 0 0 0 0 UNKNOWN ()) 4 0
(5 6 7 8 9 10 11 12 13 14 15 16 17 18 19 20 21 22 23 24 25 26 27 28 29
30 31 32 33) () 0 () () () 0 0)
5 'ph' '' '' 4 ((VARIABLE OUT UNKNOWN-PROC UNKNOWN UNKNOWN 0 0 DIMENSION
DUMMY) (REAL 4 0 0 0 REAL ()) 0 0 () (1 0 EXPLICIT (CONSTANT (INTEGER 4
0 0 0 INTEGER ()) 0 '1') (VARIABLE (INTEGER 4 0 0 0 INTEGER ()) 0 26 ()))
0 () () () 0 0)
6 'pco2' '' '' 4 ((VARIABLE OUT UNKNOWN-PROC UNKNOWN UNKNOWN 0 0
DIMENSION DUMMY) (REAL 4 0 0 0 REAL ()) 0 0 () (1 0 EXPLICIT (CONSTANT (
INTEGER 4 0 0 0 INTEGER ()) 0 '1') (VARIABLE (INTEGER 4 0 0 0 INTEGER ())
0 26 ())) 0 () () () 0 0)
7 'fco2' '' '' 4 ((VARIABLE OUT UNKNOWN-PROC UNKNOWN UNKNOWN 0 0
DIMENSION DUMMY) (REAL 4 0 0 0 REAL ()) 0 0 () (1 0 EXPLICIT (CONSTANT (
INTEGER 4 0 0 0 INTEGER ()) 0 '1') (VARIABLE (INTEGER 4 0 0 0 INTEGER ())
0 26 ())) 0 () () () 0 0)
8 'co2' '' '' 4 ((VARIABLE OUT UNKNOWN-PROC UNKNOWN UNKNOWN 0 0
DIMENSION DUMMY) (REAL 4 0 0 0 REAL ()) 0 0 () (1 0 EXPLICIT (CONSTANT (
INTEGER 4 0 0 0 INTEGER ()) 0 '1') (VARIABLE (INTEGER 4 0 0 0 INTEGER ())
0 26 ())) 0 () () () 0 0)
9 'hco3' '' '' 4 ((VARIABLE OUT UNKNOWN-PROC UNKNOWN UNKNOWN 0 0
DIMENSION DUMMY) (REAL 4 0 0 0 REAL ()) 0 0 () (1 0 EXPLICIT (CONSTANT (
INTEGER 4 0 0 0 INTEGER ()) 0 '1') (VARIABLE (INTEGER 4 0 0 0 INTEGER ())
0 26 ())) 0 () () () 0 0)
10 'co3' '' '' 4 ((VARIABLE OUT UNKNOWN-PROC UNKNOWN UNKNOWN 0 0
DIMENSION DUMMY) (REAL 4 0 0 0 REAL ()) 0 0 () (1 0 EXPLICIT (CONSTANT (
INTEGER 4 0 0 0 INTEGER ()) 0 '1') (VARIABLE (INTEGER 4 0 0 0 INTEGER ())
0 26 ())) 0 () () () 0 0)
11 'omegaa' '' '' 4 ((VARIABLE OUT UNKNOWN-PROC UNKNOWN UNKNOWN 0 0
DIMENSION DUMMY) (REAL 4 0 0 0 REAL ()) 0 0 () (1 0 EXPLICIT (CONSTANT (
INTEGER 4 0 0 0 INTEGER ()) 0 '1') (VARIABLE (INTEGER 4 0 0 0 INTEGER ())
0 26 ())) 0 () () () 0 0)
12 'omegac' '' '' 4 ((VARIABLE OUT UNKNOWN-PROC UNKNOWN UNKNOWN 0 0
DIMENSION DUMMY) (REAL 4 0 0 0 REAL ()) 0 0 () (1 0 EXPLICIT (CONSTANT (
INTEGER 4 0 0 0 INTEGER ()) 0 '1') (VARIABLE (INTEGER 4 0 0 0 INTEGER ())
0 26 ())) 0 () () () 0 0)
13 'betad' '' '' 4 ((VARIABLE OUT UNKNOWN-PROC UNKNOWN UNKNOWN 0 0
DIMENSION DUMMY) (REAL 4 0 0 0 REAL ()) 0 0 () (1 0 EXPLICIT (CONSTANT (
INTEGER 4 0 0 0 INTEGER ()) 0 '1') (VARIABLE (INTEGER 4 0 0 0 INTEGER ())
0 26 ())) 0 () () () 0 0)
14 'rhosw' '' '' 4 ((VARIABLE OUT UNKNOWN-PROC UNKNOWN UNKNOWN 0 0
DIMENSION DUMMY) (REAL 4 0 0 0 REAL ()) 0 0 () (1 0 EXPLICIT (CONSTANT (
INTEGER 4 0 0 0 INTEGER ()) 0 '1') (VARIABLE (INTEGER 4 0 0 0 INTEGER ())
0 26 ())) 0 () () () 0 0)
15 'p' '' '' 4 ((VARIABLE OUT UNKNOWN-PROC UNKNOWN UNKNOWN 0 0 DIMENSION
DUMMY) (REAL 4 0 0 0 REAL ()) 0 0 () (1 0 EXPLICIT (CONSTANT (INTEGER 4
0 0 0 INTEGER ()) 0 '1') (VARIABLE (INTEGER 4 0 0 0 INTEGER ()) 0 26 ()))
0 () () () 0 0)
16 'tempis' '' '' 4 ((VARIABLE OUT UNKNOWN-PROC UNKNOWN UNKNOWN 0 0
DIMENSION DUMMY) (REAL 4 0 0 0 REAL ()) 0 0 () (1 0 EXPLICIT (CONSTANT (
INTEGER 4 0 0 0 INTEGER ()) 0 '1') (VARIABLE (INTEGER 4 0 0 0 INTEGER ())
0 26 ())) 0 () () () 0 0)
17 'temp' '' '' 4 ((VARIABLE IN UNKNOWN-PROC UNKNOWN UNKNOWN 0 0
DIMENSION DUMMY) (REAL 4 0 0 0 REAL ()) 0 0 () (1 0 EXPLICIT (CONSTANT (
INTEGER 4 0 0 0 INTEGER ()) 0 '1') (VARIABLE (INTEGER 4 0 0 0 INTEGER ())
0 26 ())) 0 () () () 0 0)
18 'sal' '' '' 4 ((VARIABLE IN UNKNOWN-PROC UNKNOWN UNKNOWN 0 0
DIMENSION DUMMY) (REAL 4 0 0 0 REAL ()) 0 0 () (1 0 EXPLICIT (CONSTANT (
INTEGER 4 0 0 0 INTEGER ()) 0 '1') (VARIABLE (INTEGER 4 0 0 0 INTEGER ())
0 26 ())) 0 () () () 0 0)
19 'alk' '' '' 4 ((VARIABLE IN UNKNOWN-PROC UNKNOWN UNKNOWN 0 0
DIMENSION DUMMY) (REAL 4 0 0 0 REAL ()) 0 0 () (1 0 EXPLICIT (CONSTANT (
INTEGER 4 0 0 0 INTEGER ()) 0 '1') (VARIABLE (INTEGER 4 0 0 0 INTEGER ())
0 26 ())) 0 () () () 0 0)
20 'dic' '' '' 4 ((VARIABLE IN UNKNOWN-PROC UNKNOWN UNKNOWN 0 0
DIMENSION DUMMY) (REAL 4 0 0 0 REAL ()) 0 0 () (1 0 EXPLICIT (CONSTANT (
INTEGER 4 0 0 0 INTEGER ()) 0 '1') (VARIABLE (INTEGER 4 0 0 0 INTEGER ())
0 26 ())) 0 () () () 0 0)
21 'sil' '' '' 4 ((VARIABLE IN UNKNOWN-PROC UNKNOWN UNKNOWN 0 0
DIMENSION DUMMY) (REAL 4 0 0 0 REAL ()) 0 0 () (1 0 EXPLICIT (CONSTANT (
INTEGER 4 0 0 0 INTEGER ()) 0 '1') (VARIABLE (INTEGER 4 0 0 0 INTEGER ())
0 26 ())) 0 () () () 0 0)
22 'phos' '' '' 4 ((VARIABLE IN UNKNOWN-PROC UNKNOWN UNKNOWN 0 0
DIMENSION DUMMY) (REAL 4 0 0 0 REAL ()) 0 0 () (1 0 EXPLICIT (CONSTANT (
INTEGER 4 0 0 0 INTEGER ()) 0 '1') (VARIABLE (INTEGER 4 0 0 0 INTEGER ())
0 26 ())) 0 () () () 0 0)
23 'patm' '' '' 4 ((VARIABLE IN UNKNOWN-PROC UNKNOWN UNKNOWN 0 0
DIMENSION DUMMY) (REAL 4 0 0 0 REAL ()) 0 0 () (1 0 EXPLICIT (CONSTANT (
INTEGER 4 0 0 0 INTEGER ()) 0 '1') (VARIABLE (INTEGER 4 0 0 0 INTEGER ())
0 26 ())) 0 () () () 0 0)
24 'depth' '' '' 4 ((VARIABLE IN UNKNOWN-PROC UNKNOWN UNKNOWN 0 0
DIMENSION DUMMY) (REAL 4 0 0 0 REAL ()) 0 0 () (1 0 EXPLICIT (CONSTANT (
INTEGER 4 0 0 0 INTEGER ()) 0 '1') (VARIABLE (INTEGER 4 0 0 0 INTEGER ())
0 26 ())) 0 () () () 0 0)
25 'lat' '' '' 4 ((VARIABLE IN UNKNOWN-PROC UNKNOWN UNKNOWN 0 0
DIMENSION DUMMY) (REAL 4 0 0 0 REAL ()) 0 0 () (1 0 EXPLICIT (CONSTANT (
INTEGER 4 0 0 0 INTEGER ()) 0 '1') (VARIABLE (INTEGER 4 0 0 0 INTEGER ())
0 26 ())) 0 () () () 0 0)
26 'n' '' '' 4 ((VARIABLE IN UNKNOWN-PROC UNKNOWN UNKNOWN 0 0 DUMMY) (
INTEGER 4 0 0 0 INTEGER ()) 0 0 () () 0 () () () 0 0)
27 'optcon' '' '' 4 ((VARIABLE IN UNKNOWN-PROC UNKNOWN UNKNOWN 0 0 DUMMY)
(CHARACTER 1 0 0 0 CHARACTER ((CONSTANT (INTEGER 4 0 0 0 INTEGER ()) 0 '6')))
0 0 () () 0 () () () 0 0)
28 'optt' '' '' 4 ((VARIABLE IN UNKNOWN-PROC UNKNOWN UNKNOWN 0 0 DUMMY)
(CHARACTER 1 0 0 0 CHARACTER ((CONSTANT (INTEGER 4 0 0 0 INTEGER ()) 0 '7')))
0 0 () () 0 () () () 0 0)
29 'optp' '' '' 4 ((VARIABLE IN UNKNOWN-PROC UNKNOWN UNKNOWN 0 0 DUMMY)
(CHARACTER 1 0 0 0 CHARACTER ((CONSTANT (INTEGER 4 0 0 0 INTEGER ()) 0 '2')))
0 0 () () 0 () () () 0 0)
30 'optb' '' '' 4 ((VARIABLE IN UNKNOWN-PROC UNKNOWN UNKNOWN 0 0
OPTIONAL DUMMY) (CHARACTER 1 0 0 0 CHARACTER ((CONSTANT (INTEGER 4 0 0 0
INTEGER ()) 0 '3'))) 0 0 () () 0 () () () 0 0)
31 'optk1k2' '' '' 4 ((VARIABLE IN UNKNOWN-PROC UNKNOWN UNKNOWN 0 0
OPTIONAL DUMMY) (CHARACTER 1 0 0 0 CHARACTER ((CONSTANT (INTEGER 4 0 0 0
INTEGER ()) 0 '3'))) 0 0 () () 0 () () () 0 0)
32 'optkf' '' '' 4 ((VARIABLE IN UNKNOWN-PROC UNKNOWN UNKNOWN 0 0
OPTIONAL DUMMY) (CHARACTER 1 0 0 0 CHARACTER ((CONSTANT (INTEGER 4 0 0 0
INTEGER ()) 0 '2'))) 0 0 () () 0 () () () 0 0)
33 'optgas' '' '' 4 ((VARIABLE IN UNKNOWN-PROC UNKNOWN UNKNOWN 0 0
OPTIONAL DUMMY) (CHARACTER 1 0 0 0 CHARACTER ((CONSTANT (INTEGER 4 0 0 0
INTEGER ()) 0 '7'))) 0 0 () () 0 () () () 0 0)
)

('mvars' 0 2 'vars' 0 3)
